[
  {
    "categoryTitle": "",
    "categorySubtitle": "",
    "color": "#3f51b5",
    "roles": ["ADMIN", "AUTHENTICATED", "REPORT_VIEWER"],
    "links": [
      { "title": "Home", "path": "/"}
    ]
  },
  {
    "categoryTitle": "Transfers",
    "categorySubtitle": "Move stock items",
    "color": "#4caf50",
    "roles": ["ADMIN"],
    "links": [
      { "title": "To Owner", "path": "/transfers/to"},
      { "title": "From Owner", "path": "/transfers/from"},
      { "title": "Assemble", "path": "/transfers/assemble"},
      { "title": "Import", "path": "/transfers/import"},
      { "title": "Dispose", "path": "/transfers/dispose"}
    ]
  },
  {
    "categoryTitle": "Reports",
    "categorySubtitle": "Remainders and insights",
    "color": "#ff9800",
    "roles": ["ADMIN", "REPORT_VIEWER"],
    "links": [
      { "title": "By Owner", "path": "/reports/by-owner"},
      { "title": "By Asset Type", "path": "/reports/by-asset-type"},
      { "title": "Inconsistencies", "path": "/reports/inconsistencies"}
    ]
  },
  {
    "categoryTitle": "Administration",
    "categorySubtitle": "Manage asset types and owners",
    "color": "#f50057",
    "roles": ["ADMIN"],
    "links": [
      { "title": "Asset Types", "path": "/manage/asset-types"},
      { "title": "Owners", "path": "/manage/owners"},
      { "title": "Users", "path": "/manage/users"}
    ]
  }
]
